<?xml version="1.0" standalone="no"?>
<!DOCTYPE svg PUBLIC "-//W3C//DTD SVG 20010904//EN"
 "http://www.w3.org/TR/2001/REC-SVG-20010904/DTD/svg10.dtd">
<svg version="1.0" xmlns="http://www.w3.org/2000/svg"
 width="102.000000pt" height="102.000000pt" viewBox="0 0 102.000000 102.000000"
 preserveAspectRatio="xMidYMid meet">
<metadata>
Created by potrace 1.11, written by Peter Selinger 2001-2013
</metadata>
<g transform="translate(0.000000,102.000000) scale(0.100000,-0.100000)"
fill="#000000" stroke="none">
<path d="M221 888 c-13 -46 -25 -91 -28 -100 -5 -16 16 -17 257 -20 l262 -3
24 -28 c24 -28 33 -97 16 -124 -5 -8 -78 -13 -252 -15 -243 -3 -245 -3 -295
-30 -148 -77 -244 -282 -187 -395 26 -50 71 -89 120 -103 22 -6 174 -10 377
-10 l340 0 32 128 c18 70 54 204 79 297 59 220 64 308 20 376 -65 98 -81 102
-442 107 l-300 4 -23 -84z m456 -550 l-22 -83 -169 -3 c-194 -3 -216 3 -216
62 0 37 31 83 64 96 11 5 98 9 193 9 l171 1 -21 -82z"/>
</g>
</svg>
